<?xml version="1.0" encoding="UTF-8"?>
<svg width="347px" height="353px" viewBox="0 0 347 353" version="1.1" xmlns="http://www.w3.org/2000/svg" xmlns:xlink="http://www.w3.org/1999/xlink">
    <!-- Generator: Sketch 63.1 (92452) - https://sketch.com -->
    <title>illustration/salary</title>
    <desc>Created with Sketch.</desc>
    <defs>
        <circle id="path-1" cx="259" cy="127" r="20"></circle>
        <mask id="mask-2" maskContentUnits="userSpaceOnUse" maskUnits="objectBoundingBox" x="0" y="0" width="40" height="40" fill="white">
            <use xlink:href="#path-1"></use>
        </mask>
        <circle id="path-3" cx="63.5" cy="63.5" r="63.5"></circle>
        <mask id="mask-4" maskContentUnits="userSpaceOnUse" maskUnits="objectBoundingBox" x="0" y="0" width="127" height="127" fill="white">
            <use xlink:href="#path-3"></use>
        </mask>
        <circle id="path-5" cx="215.5" cy="350.5" r="63.5"></circle>
        <mask id="mask-6" maskContentUnits="userSpaceOnUse" maskUnits="objectBoundingBox" x="0" y="0" width="127" height="127" fill="white">
            <use xlink:href="#path-5"></use>
        </mask>
        <path d="M157.121678,0.503078668 C155.777252,0.52165388 154.37874,1.12999208 153.062129,2.29094286 L153.062129,2.29094286 L6.03600923,132.199786 C2.47714357,135.343641 0.0463595179,141.951773 0,147.980977 L0,147.980977 L0,148.33081 C0.00772658631,149.244092 0.0695392768,150.143441 0.193164658,151.01338 L0.193164658,151.01338 L20.9220504,297.124453 C21.4830006,301.080973 23.1473073,303.836296 25.4869176,304.68766 L25.4869176,304.68766 C25.9829644,304.868768 26.4975551,304.957001 27.018327,304.957001 L27.018327,304.957001 C28.4245657,304.957001 29.8957078,304.311512 31.284948,303.059233 L31.284948,303.059233 L180.547142,168.537545 L180.548688,168.537545 C184.663867,164.824051 187.13483,156.350658 186.053108,149.648102 L186.053108,149.648102 L163.216409,7.88982144 C162.616826,4.17632691 160.972609,1.57889305 158.704083,0.766227509 L158.704083,0.766227509 C158.231216,0.597502664 157.742895,0.509270405 157.246849,0.503078668 L157.246849,0.503078668 L157.121678,0.503078668 Z M26.0138708,303.232602 C24.2537544,302.591757 22.9232363,300.228061 22.4534598,296.906194 L22.4534598,296.906194 L1.72302875,150.795122 C0.840652591,144.563138 3.23280371,136.741426 7.05900925,133.360737 L7.05900925,133.360737 L154.086675,3.45189363 C155.137491,2.52158508 156.189852,2.04791716 157.174219,2.04791716 L157.174219,2.04791716 C157.52037,2.04791716 157.857249,2.10673867 158.183311,2.22438168 L158.183311,2.22438168 C159.90634,2.84045955 161.184317,4.99828005 161.691181,8.13749094 L161.691181,8.13749094 L184.529425,149.89732 C185.535426,156.138591 183.285444,163.98507 179.513325,167.384334 L179.513325,167.384334 L179.51487,167.384334 L30.252676,301.906022 C29.1462289,302.902892 28.0475083,303.410614 27.0275989,303.410614 L27.0275989,303.410614 C26.6799025,303.410614 26.3399327,303.351793 26.0138708,303.232602 L26.0138708,303.232602 Z" id="path-7"></path>
        <linearGradient x1="0%" y1="0%" x2="69.3250629%" y2="0%" id="linearGradient-9">
            <stop stop-color="#1AB2E7" offset="0%"></stop>
            <stop stop-color="#0B7BCB" offset="100%"></stop>
        </linearGradient>
        <path d="M152.453998,2.03131585 L5.03045924,131.617007 C3.05105935,133.356028 1.43506492,136.203809 0.409797632,139.417049 L0.409797632,139.417049 L5.93201403,141.659348 L37.3364303,154.419393 L166.359282,39.2414037 L194.380161,14.2261405 L157.909719,0.928748848 L156.739089,0.501349279 C156.516407,0.461087001 156.290631,0.440955862 156.060217,0.440955862 L156.060217,0.440955862 C154.915876,0.440955862 153.681844,0.951977086 152.453998,2.03131585" id="path-10"></path>
        <linearGradient x1="13.010987%" y1="77.5086521%" x2="86.5865792%" y2="20.620444%" id="linearGradient-12">
            <stop stop-color="#1AB2E7" offset="0%"></stop>
            <stop stop-color="#0B7BCB" offset="100%"></stop>
        </linearGradient>
        <path d="M152.829682,1.61222021 L5.80356174,131.519516 C1.80119003,135.058094 -0.705314571,143.16927 0.2141492,149.642731 L0.2141492,149.642731 L20.943035,295.755351 C21.8903144,302.436236 25.9606801,304.886616 30.0248645,301.221108 L30.0248645,301.221108 L179.287059,166.700968 C183.23689,163.137623 185.591953,154.992392 184.547319,148.512739 L184.547319,148.512739 L161.709075,6.75445816 C161.015228,2.4496527 158.93214,0.0147519475 156.436452,0.0147519475 L156.436452,0.0147519475 C155.289827,0.0147519475 154.055119,0.528666156 152.829682,1.61222021" id="path-13"></path>
        <linearGradient x1="63.376214%" y1="43.2246016%" x2="-2.68819357%" y2="76.1674842%" id="linearGradient-15">
            <stop stop-color="#0B7BCB" offset="0%"></stop>
            <stop stop-color="#1AB2E7" offset="100%"></stop>
        </linearGradient>
        <path d="M88.1009778,0.587639463 L54.7097624,220.932282 L19.2076437,252.981115 C15.141914,256.651148 11.0730936,254.196707 10.1258141,247.504749 L10.1258141,247.504749 L0.523212652,179.710691 L18.3067237,62.3580051 L88.1009778,0.587639463 Z" id="path-16"></path>
        <linearGradient x1="34.6625315%" y1="-8.31615316%" x2="34.6625315%" y2="34.6625315%" id="linearGradient-18">
            <stop stop-color="#1AB2E7" offset="0%"></stop>
            <stop stop-color="#0B7BCB" offset="100%"></stop>
        </linearGradient>
        <path d="M64.7465981,1.61478997 C68.6392522,-1.82887032 72.6138082,0.473622039 73.625991,6.76710115 L73.625991,6.76710115 L75.2485742,16.856204 L46.3650492,207.454506 L0.0240751764,249.290094 L33.344206,29.4090512 L64.7465981,1.61478997 Z" id="path-19"></path>
        <linearGradient x1="53.4468312%" y1="-12.2714238%" x2="48.710069%" y2="94.2535767%" id="linearGradient-21">
            <stop stop-color="#1AB2E7" offset="0%"></stop>
            <stop stop-color="#1AB2E7" offset="28.6928642%"></stop>
            <stop stop-color="#0B7BCB" offset="100%"></stop>
            <stop stop-color="#0B7BCB" offset="100%"></stop>
        </linearGradient>
        <linearGradient x1="91.8091915%" y1="46.673689%" x2="0%" y2="53.4676465%" id="linearGradient-22">
            <stop stop-color="#0018FF" offset="0%"></stop>
            <stop stop-color="#FFFFFF" offset="100%"></stop>
        </linearGradient>
        <linearGradient x1="96.9242732%" y1="27.2639581%" x2="24.5416677%" y2="64.2208732%" id="linearGradient-23">
            <stop stop-color="#FF7E99" offset="0%"></stop>
            <stop stop-color="#FFDA8D" offset="100%"></stop>
        </linearGradient>
        <linearGradient x1="100%" y1="8.13492063%" x2="22.234623%" y2="70.6555886%" id="linearGradient-24">
            <stop stop-color="#FF0000" offset="0%"></stop>
            <stop stop-color="#FFAB00" offset="100%"></stop>
        </linearGradient>
        <linearGradient x1="100%" y1="8.13492063%" x2="22.234623%" y2="70.6555886%" id="linearGradient-25">
            <stop stop-color="#FF677F" offset="0%"></stop>
            <stop stop-color="#FFBE3A" offset="100%"></stop>
        </linearGradient>
        <circle id="path-26" cx="54.180602" cy="54.180602" r="54.180602"></circle>
        <linearGradient x1="81.2924604%" y1="-1.13686838e-11%" x2="9.37403159%" y2="-2.27373675e-11%" id="linearGradient-28">
            <stop stop-color="#FFAE69" offset="0%"></stop>
            <stop stop-color="#FFEB77" offset="100%"></stop>
        </linearGradient>
        <linearGradient x1="81.2924604%" y1="-1.13686838e-11%" x2="9.37403159%" y2="-2.27373675e-11%" id="linearGradient-29">
            <stop stop-color="#FFAE69" offset="0%"></stop>
            <stop stop-color="#FFEB77" offset="100%"></stop>
        </linearGradient>
        <text id="text-30" font-family="Chalkboard" font-size="80.2675585" font-weight="normal" fill="#220000">
            <tspan x="63.6314184" y="102.641832">$</tspan>
        </text>
        <filter x="-1.1%" y="-0.5%" width="102.1%" height="102.0%" filterUnits="objectBoundingBox" id="filter-31">
            <feOffset dx="0" dy="1" in="SourceAlpha" result="shadowOffsetOuter1"></feOffset>
            <feColorMatrix values="0 0 0 0 1   0 0 0 0 1   0 0 0 0 1  0 0 0 0.5 0" type="matrix" in="shadowOffsetOuter1"></feColorMatrix>
        </filter>
    </defs>
    <g id="illustration/salary" stroke="none" stroke-width="1" fill="none" fill-rule="evenodd">
        <path d="M136.125556,352.681062 C231.94696,352.681062 347,275.002466 347,179.181062 C347,83.3596578 318.050316,5.68106185 173.5,5.68106185 C28.9496845,5.68106185 0,83.3596578 0,179.181062 C0,275.002466 40.3041518,352.681062 136.125556,352.681062 Z" id="Oval-6" fill="#ECEDEE" transform="translate(173.500000, 179.181062) rotate(-270.000000) translate(-173.500000, -179.181062) "></path>
        <g id="Group-5" transform="translate(38.000000, 0.000000)" stroke="#FFFFFF">
            <g id="flair/twinkle" opacity="0.617980072" transform="translate(16.500000, 213.500000) rotate(-45.000000) translate(-16.500000, -213.500000) translate(7.000000, 204.000000)" stroke-linecap="round" stroke-linejoin="round" stroke-width="2">
                <g id="Group-24">
                    <line x1="0" y1="8.44444444" x2="4.22222222" y2="8.44444444" id="Line-2"></line>
                    <line x1="9.5" y1="0" x2="9.5" y2="3.69444444" id="Line-2"></line>
                    <line x1="9.5" y1="13.7222222" x2="9.5" y2="17.9444444" id="Line-2"></line>
                    <line x1="14.7777778" y1="8.44444444" x2="19" y2="8.44444444" id="Line-2"></line>
                </g>
            </g>
            <use id="Oval-3" mask="url(#mask-2)" stroke-width="2" stroke-dasharray="2,2" xlink:href="#path-1"></use>
            <use id="Oval-3" mask="url(#mask-4)" stroke-width="4" stroke-dasharray="3,3" xlink:href="#path-3"></use>
            <use id="Oval-3" mask="url(#mask-6)" stroke-width="4" stroke-dasharray="3,3" xlink:href="#path-5"></use>
        </g>
        <g id="Group-58" transform="translate(177.500000, 179.500000) scale(-1, 1) rotate(-105.000000) translate(-177.500000, -179.500000) translate(57.000000, 17.000000)">
            <g id="Group-57">
                <g id="Group-5">
                    <mask id="mask-8" fill="white">
                        <use xlink:href="#path-7"></use>
                    </mask>
                    <g id="Clip-4"></g>
                    <path d="M157.121678,0.503078668 C155.777252,0.52165388 154.37874,1.12999208 153.062129,2.29094286 L153.062129,2.29094286 L6.03600923,132.199786 C2.47714357,135.343641 0.0463595179,141.951773 0,147.980977 L0,147.980977 L0,148.33081 C0.00772658631,149.244092 0.0695392768,150.143441 0.193164658,151.01338 L0.193164658,151.01338 L20.9220504,297.124453 C21.4830006,301.080973 23.1473073,303.836296 25.4869176,304.68766 L25.4869176,304.68766 C25.9829644,304.868768 26.4975551,304.957001 27.018327,304.957001 L27.018327,304.957001 C28.4245657,304.957001 29.8957078,304.311512 31.284948,303.059233 L31.284948,303.059233 L180.547142,168.537545 L180.548688,168.537545 C184.663867,164.824051 187.13483,156.350658 186.053108,149.648102 L186.053108,149.648102 L163.216409,7.88982144 C162.616826,4.17632691 160.972609,1.57889305 158.704083,0.766227509 L158.704083,0.766227509 C158.231216,0.597502664 157.742895,0.509270405 157.246849,0.503078668 L157.246849,0.503078668 L157.121678,0.503078668 Z M26.0138708,303.232602 C24.2537544,302.591757 22.9232363,300.228061 22.4534598,296.906194 L22.4534598,296.906194 L1.72302875,150.795122 C0.840652591,144.563138 3.23280371,136.741426 7.05900925,133.360737 L7.05900925,133.360737 L154.086675,3.45189363 C155.137491,2.52158508 156.189852,2.04791716 157.174219,2.04791716 L157.174219,2.04791716 C157.52037,2.04791716 157.857249,2.10673867 158.183311,2.22438168 L158.183311,2.22438168 C159.90634,2.84045955 161.184317,4.99828005 161.691181,8.13749094 L161.691181,8.13749094 L184.529425,149.89732 C185.535426,156.138591 183.285444,163.98507 179.513325,167.384334 L179.513325,167.384334 L179.51487,167.384334 L30.252676,301.906022 C29.1462289,302.902892 28.0475083,303.410614 27.0275989,303.410614 L27.0275989,303.410614 C26.6799025,303.410614 26.3399327,303.351793 26.0138708,303.232602 L26.0138708,303.232602 Z" id="Fill-3" fill-opacity="0.2" fill="url(#linearGradient-9)" mask="url(#mask-8)"></path>
                </g>
                <g id="Group-11" transform="translate(17.000000, 5.873762)" fill="#07456B">
                    <path d="M1.98303065,139.316396 L1.97838842,139.29313 L1.99076771,139.297783 C3.01670182,136.082492 4.62446282,133.222388 6.60205528,131.482129 L154.121477,1.68860793 C158.028692,-1.74848061 161.991614,0.551700934 162.981958,6.82717938 L185.261595,148.458183 C186.281339,154.935295 183.896778,163.072013 179.930761,166.630082 L57.0708955,276.882142 L62.992841,316.886378 L24.669637,302.284956 L24.6572577,302.210507 C22.9241564,301.286091 21.5810028,299.030889 21.1013051,295.564331 L0.943169831,149.590436 C0.489778134,146.313104 0.929243123,142.626299 1.98303065,139.316396" id="Fill-9"></path>
                </g>
                <g id="Group-14" transform="translate(18.348837, 6.116337)">
                    <mask id="mask-11" fill="white">
                        <use xlink:href="#path-10"></use>
                    </mask>
                    <g id="Clip-13"></g>
                    <path d="M152.453998,2.03131585 L5.03045924,131.617007 C3.05105935,133.356028 1.43506492,136.203809 0.409797632,139.417049 L0.409797632,139.417049 L5.93201403,141.659348 L37.3364303,154.419393 L166.359282,39.2414037 L194.380161,14.2261405 L157.909719,0.928748848 L156.739089,0.501349279 C156.516407,0.461087001 156.290631,0.440955862 156.060217,0.440955862 L156.060217,0.440955862 C154.915876,0.440955862 153.681844,0.951977086 152.453998,2.03131585" id="Fill-12" fill="url(#linearGradient-12)" mask="url(#mask-11)"></path>
                </g>
                <g id="Group-17" transform="translate(55.046512, 20.096535)">
                    <mask id="mask-14" fill="white">
                        <use xlink:href="#path-13"></use>
                    </mask>
                    <g id="Clip-16"></g>
                    <path d="M152.829682,1.61222021 L5.80356174,131.519516 C1.80119003,135.058094 -0.705314571,143.16927 0.2141492,149.642731 L0.2141492,149.642731 L20.943035,295.755351 C21.8903144,302.436236 25.9606801,304.886616 30.0248645,301.221108 L30.0248645,301.221108 L179.287059,166.700968 C183.23689,163.137623 185.591953,154.992392 184.547319,148.512739 L184.547319,148.512739 L161.709075,6.75445816 C161.015228,2.4496527 158.93214,0.0147519475 156.436452,0.0147519475 L156.436452,0.0147519475 C155.289827,0.0147519475 154.055119,0.528666156 152.829682,1.61222021" id="Fill-15" fill="url(#linearGradient-15)" mask="url(#mask-14)"></path>
                </g>
                <g id="Group-56" transform="translate(34.076412, 10.485149)">
                    <path d="M22.5248535,297.930206 L2.10039522,151.804893 C1.19638462,145.330006 3.71525176,137.21624 7.72380474,133.677999 L154.895185,3.75385963 C156.103623,2.6871157 157.319788,2.17390023 158.45096,2.15839523 C156.98909,1.64828077 155.295422,2.05916324 153.615662,3.54299165 L6.42882887,133.46248 C2.41873058,137.00072 -0.100136559,145.112936 0.80387404,151.587823 L21.2051525,297.706934 C21.8495498,302.31657 23.8630982,305.099718 26.4607765,305.064395 C24.4812251,304.346175 23.0548973,301.730481 22.5248535,297.930206" id="Fill-18" fill="#07456B"></path>
                    <path d="M69.4290957,78.27104 L61.3563583,74.8444352 C59.5297933,74.0676348 57.8129458,73.8552163 56.3804367,74.2288868 L55.7468566,74.3947903 C54.9649261,74.5979057 54.5847781,75.4382767 54.7547629,76.5933991 L54.9556542,77.973344 L77.6826352,87.6314079 L77.477108,86.2499125 C77.3055778,85.0916891 76.6086397,83.7939207 75.6536336,82.8496662 L74.8840656,82.0883708 C73.1378571,80.3642149 71.2587513,79.0478405 69.4290957,78.27104" id="Fill-20" fill="#0B7BCB"></path>
                    <polygon id="Fill-22" fill="#0B7BCB" points="67.2908402 96.8232365 77.6830988 87.6318731 55.0272024 74.9007184 44.7802036 83.8951683"></polygon>
                    <path d="M59.0405458,87.4445727 L50.9631725,84.0102154 C49.1366075,83.2318645 47.4182147,83.019446 45.9841603,83.3946669 L45.3505802,83.5605704 C44.5655591,83.7652364 44.185411,84.6056074 44.3523053,85.7653813 L44.5531965,87.1453262 L67.2909947,96.8235466 L67.0870128,95.4389502 C66.9170279,94.2776258 66.2200898,92.9767563 65.2666291,92.0325019 L64.4955158,91.269656 C62.7508526,89.5423991 60.8717468,88.2229236 59.0405458,87.4445727" id="Fill-24" fill="#07456B"></path>
                    <polygon id="Fill-26" fill="#0B7BCB" points="54.4271557 91.3457855 53.5138732 85.0926194 54.2015394 85.3856639 55.1163672 91.63883"></polygon>
                    <polygon id="Fill-28" fill="#0B7BCB" points="53.5157276 85.0968057 64.213959 76.0573913 64.8011795 76.3085723 54.2033938 85.3882997"></polygon>
                    <path d="M116.279097,36.9837084 L108.226449,33.5850126 C106.401429,32.8159647 104.693854,32.6050967 103.267526,32.9772167 L102.640127,33.1400191 C101.859742,33.3431346 101.48732,34.1742026 101.660396,35.3215725 L101.869014,36.6891134 L124.543454,46.2634503 L124.331745,44.8943589 C124.155579,43.7454385 123.457096,42.4585236 122.498999,41.5235721 L121.729431,40.7684787 C119.983223,39.0582773 118.105662,37.7543069 116.279097,36.9837084" id="Fill-30" fill="#0B7BCB"></path>
                    <polygon id="Fill-32" fill="#0B7BCB" points="114.243296 55.3746529 124.542836 46.2639155 101.924027 33.6428463 91.7651114 42.5582207"></polygon>
                    <path d="M105.981103,46.0784757 L97.9238188,42.6735779 C96.0987991,41.9029794 94.3896782,41.690561 92.9618051,42.0626809 L92.3313156,42.2270339 C91.5509304,42.4301494 91.1769636,43.2643184 91.3484938,44.4116883 L91.5555664,45.7823302 L114.243914,55.3752731 L114.033751,54.0030807 C113.857585,52.8526098 113.159102,51.5625938 112.20255,50.6260919 L111.431437,49.8694479 C109.685228,48.1561456 107.807668,46.8506246 105.981103,46.0784757" id="Fill-34" fill="#07456B"></path>
                    <polygon id="Fill-36" fill="#0B7BCB" points="101.408509 49.9455775 100.467411 43.7451284 101.155077 44.0350719 102.096175 50.235521"></polygon>
                    <polygon id="Fill-38" fill="#07456B" points="100.468338 43.7496248 111.076941 34.7908364 111.662616 35.0373659 101.154459 44.0395683"></polygon>
                    <path d="M48.1146892,55.4360527 L51.9795277,81.899985 L58.9396366,75.7662074 L55.1628812,50.043414 C54.6096577,46.2881033 56.3543208,41.3203016 59.0555354,38.9495872 L89.125864,12.5399224 C91.8116254,10.181612 94.444846,11.29177 95.0104322,15.0191717 L98.8814519,40.5512536 L105.778203,34.470193 L101.785103,8.26674465 C100.533396,0.049095166 94.7230031,-2.39294218 88.8028927,2.80123249 L56.725197,30.9428057 C50.7618177,36.1741924 46.9031605,47.1362267 48.1146892,55.4360527" id="Fill-40" fill="#07456B"></path>
                    <path d="M99.9174326,10.2276619 L87.1021165,9.57955292 L51.4176503,44.4626997 L50.5986322,64.930849 L51.9801458,81.9010704 L60.3619466,85.4641192 L59.8257215,64.2594825 L59.7268212,49.7219954 L66.9836311,38.8467891 C66.9836311,38.8467891 80.4186194,27.4366603 80.548426,27.1250098 C80.679778,26.8133593 99.9174326,10.2276619 99.9174326,10.2276619" id="Fill-42" fill="#07456B"></path>
                    <polygon id="Fill-44" fill="#07456B" points="107.245636 44.085153 98.8808338 40.5515637 96.0297234 21.7455504 103.915477 21.9703729 106.256633 22.2541144"></polygon>
                    <path d="M105.575148,4.10287716 L96.5628579,0.327409899 C96.5628579,0.327409899 99.0585453,4.88277861 99.0987235,4.85021812 C99.1373564,4.81920812 102.051825,5.69989206 102.101275,5.69219045 L105.575148,4.10287716 Z" id="Fill-46" fill="#07456B"></path>
                    <path d="M56.4736193,58.9806505 L60.3631829,85.4647394 L67.3202012,79.3263103 L63.5187207,53.5849109 C62.9639518,49.8249486 64.7039791,44.8555964 67.4036483,42.4817811 L97.4616144,16.0519597 C100.147376,13.6936494 102.782142,14.8022568 103.350818,18.5343101 L107.245018,44.084998 L114.140224,37.9977353 L110.122399,11.7772315 C108.86142,3.55338 103.049482,1.10824165 97.1309165,6.30706782 L65.0671286,34.4687976 C59.1052946,39.7048357 55.254364,50.676173 56.4736193,58.9806505" id="Fill-48" fill="#1AB2E7"></path>
                    <g id="Group-52" transform="translate(31.780099, 58.045234)">
                        <mask id="mask-17" fill="white">
                            <use xlink:href="#path-16"></use>
                        </mask>
                        <g id="Clip-51"></g>
                        <path d="M88.1009778,0.587639463 L18.3067237,62.3580051 L0.523212652,179.710691 L10.1258141,247.504749 C11.0730936,254.196707 15.141914,256.651148 19.2076437,252.981115 L54.7097624,220.932282 L88.1009778,0.587639463 Z" id="Fill-50" fill="url(#linearGradient-18)" mask="url(#mask-17)"></path>
                    </g>
                    <g id="Group-55" transform="translate(109.045962, 9.302999)">
                        <mask id="mask-20" fill="white">
                            <use xlink:href="#path-19"></use>
                        </mask>
                        <g id="Clip-54"></g>
                        <path d="M0.0240751764,249.290094 L46.3650492,207.454506 L75.2485742,16.856204 L73.625991,6.76710115 C72.6138082,0.473622039 68.6392522,-1.82887032 64.7465981,1.61478997 L33.344206,29.4090512 L0.0240751764,249.290094 Z" id="Fill-53" fill="url(#linearGradient-21)" mask="url(#mask-20)"></path>
                    </g>
                </g>
            </g>
        </g>
        <path d="M159,143 C199.869071,143 233,152.849736 233,165 C233,175.244975 209.444956,183.854346 177.557363,186.302507 C168.769871,187.395785 159.122277,188 149,188 C108.130929,188 75,178.150264 75,166 C75,155.755025 98.5550436,147.145654 130.442637,144.697493 C139.230129,143.604215 148.877723,143 159,143 Z" id="Combined-Shape" fill="url(#linearGradient-22)" opacity="0.65141369" style="mix-blend-mode: color-burn;"></path>
        <g id="Group-6" transform="translate(90.000000, 13.000000)">
            <g id="Group-2">
                <g id="Group-4" transform="translate(0.482584, 0.106834)">
                    <g id="Group-3" transform="translate(100.000000, 96.500000) rotate(-19.000000) translate(-100.000000, -96.500000) translate(20.000000, 22.000000)">
                        <circle id="Oval" fill="#FFBF28" cx="74.2474916" cy="74.2474916" r="74.2474916"></circle>
                        <circle id="Oval" fill="url(#linearGradient-23)" cx="84.9498328" cy="74.2474916" r="74.2474916"></circle>
                        <circle id="Oval" fill="#FFF7E4" cx="85.2842809" cy="75.9197324" r="63.2107023"></circle>
                        <circle id="Oval" fill="url(#linearGradient-24)" cx="85.2842809" cy="71.9063545" r="63.2107023"></circle>
                        <circle id="Oval" fill="url(#linearGradient-25)" cx="85.2842809" cy="73.9130435" r="63.2107023"></circle>
                        <g id="Group" opacity="0.610863095" transform="translate(30.541745, 22.073579)">
                            <mask id="mask-27" fill="white">
                                <use xlink:href="#path-26"></use>
                            </mask>
                            <use id="Oval" fill="#FFD267" opacity="0" xlink:href="#path-26"></use>
                            <rect id="Rectangle" fill="url(#linearGradient-28)" mask="url(#mask-27)" transform="translate(54.515050, 45.197664) rotate(-30.000000) translate(-54.515050, -45.197664) " x="-22.0735786" y="31.8197378" width="153.177258" height="26.7558528"></rect>
                            <rect id="Rectangle" fill="url(#linearGradient-29)" mask="url(#mask-27)" transform="translate(33.612040, 24.889159) rotate(-30.000000) translate(-33.612040, -24.889159) " x="-42.9765886" y="17.1968509" width="153.177258" height="15.3846154"></rect>
                        </g>
                        <g id="$" fill="#220000" fill-opacity="1">
                            <use filter="url(#filter-31)" xlink:href="#text-30"></use>
                            <use xlink:href="#text-30"></use>
                        </g>
                    </g>
                </g>
                <g id="flair/twinkle" opacity="0.617980072" transform="translate(18.556937, 35.742494) rotate(-45.000000) translate(-18.556937, -35.742494) translate(12.056937, 29.242494)" stroke="#FFFFFF" stroke-linecap="round" stroke-linejoin="round" stroke-width="1.33779264">
                    <g id="Group-24">
                        <line x1="0" y1="5.64845782" x2="2.82422891" y2="5.64845782" id="Line-2"></line>
                        <line x1="6.35451505" y1="0" x2="6.35451505" y2="2.4712003" id="Line-2"></line>
                        <line x1="6.35451505" y1="9.17874396" x2="6.35451505" y2="12.0029729" id="Line-2"></line>
                        <line x1="9.88480119" y1="5.64845782" x2="12.7090301" y2="5.64845782" id="Line-2"></line>
                    </g>
                </g>
                <g id="flair/twinkle" opacity="0.617980072" transform="translate(176.416468, 87.916407) rotate(-45.000000) translate(-176.416468, -87.916407) translate(169.916468, 81.416407)" stroke="#FFFFFF" stroke-linecap="round" stroke-linejoin="round" stroke-width="1.33779264">
                    <g id="Group-24">
                        <line x1="0" y1="5.64845782" x2="2.82422891" y2="5.64845782" id="Line-2"></line>
                        <line x1="6.35451505" y1="0" x2="6.35451505" y2="2.4712003" id="Line-2"></line>
                        <line x1="6.35451505" y1="9.17874396" x2="6.35451505" y2="12.0029729" id="Line-2"></line>
                        <line x1="9.88480119" y1="5.64845782" x2="12.7090301" y2="5.64845782" id="Line-2"></line>
                    </g>
                </g>
            </g>
        </g>
    </g>
</svg>