<svg width="80" height="50" viewBox="0 0 80 50" fill="none" xmlns="http://www.w3.org/2000/svg">
<path d="M12 8H69V43H12V8Z" fill="white" stroke="#07456B" stroke-width="2"/>
<rect x="30" y="7" width="21" height="37" fill="#1AB2E7"/>
<path d="M50 33H68" stroke="#07456B" stroke-width="2" stroke-linecap="square"/>
<path d="M12 33H30" stroke="#07456B" stroke-width="2" stroke-linecap="square"/>
<path d="M35 33H46" stroke="#07456B" stroke-width="2" stroke-linecap="square"/>
<path d="M22 38H30" stroke="#07456B" stroke-width="2" stroke-linecap="square"/>
<path d="M51 38H59" stroke="#07456B" stroke-width="2" stroke-linecap="square"/>
<rect x="31" y="8" width="19" height="35" stroke="#07456B" stroke-width="2"/>
</svg>
