<svg width="80" height="50" viewBox="0 0 80 50" fill="none" xmlns="http://www.w3.org/2000/svg">
<path fill-rule="evenodd" clip-rule="evenodd" d="M21.7099 33.5908C23.282 32.1845 25.7242 30 29.6049 30C29.6122 30 29.6382 30.0327 29.6854 30.0922C30.1568 30.6862 32.7451 33.9475 40 33.9475C47.2493 33.9475 49.842 30.6864 50.3144 30.0923C50.3617 30.0328 50.3878 30 50.3951 30C54.2758 30 56.718 32.1845 58.2901 33.5908C58.4308 33.7166 58.5645 33.8362 58.6916 33.9475C60.2397 35.302 65 49 65 49H40H15C15 49 19.7603 35.302 21.3084 33.9475C21.4355 33.8362 21.5692 33.7166 21.7099 33.5908Z" fill="#1AB2E7"/>
<path d="M21.7099 33.5908L21.0432 32.8454L21.0432 32.8454L21.7099 33.5908ZM29.6854 30.0922L28.9022 30.7139L28.9022 30.7139L29.6854 30.0922ZM50.3144 30.0923L49.5316 29.47L49.5316 29.47L50.3144 30.0923ZM58.2901 33.5908L57.6234 34.3361L57.6234 34.3361L58.2901 33.5908ZM58.6916 33.9475L59.3501 33.1949L59.3501 33.1949L58.6916 33.9475ZM65 49V50C65.3237 50 65.6274 49.8433 65.8149 49.5795C66.0025 49.3158 66.0508 48.9775 65.9446 48.6717L65 49ZM15 49L14.0554 48.6717C13.9492 48.9775 13.9975 49.3158 14.1851 49.5795C14.3726 49.8433 14.6763 50 15 50V49ZM21.3084 33.9475L20.6499 33.1949L20.6499 33.1949L21.3084 33.9475ZM29.6049 29C25.3115 29 22.6163 31.4383 21.0432 32.8454L22.3766 34.3361C23.9478 32.9307 26.1368 31 29.6049 31V29ZM30.4687 29.4706C30.4504 29.4474 30.4188 29.4075 30.3914 29.3753C30.3798 29.3616 30.3469 29.3231 30.3035 29.2818C30.2835 29.2627 30.2355 29.2182 30.1674 29.1722C30.1394 29.1534 29.924 29 29.6049 29V31C29.4263 31 29.2899 30.9521 29.2177 30.9217C29.1406 30.8891 29.0832 30.8533 29.0498 30.8308C28.9846 30.7869 28.9402 30.7454 28.9244 30.7303C28.904 30.7109 28.8895 30.6953 28.883 30.6881C28.8756 30.68 28.8707 30.6742 28.869 30.6723C28.8682 30.6714 28.8733 30.6776 28.9022 30.7139L30.4687 29.4706ZM40 32.9475C36.529 32.9475 34.2363 32.1691 32.7819 31.367C31.3304 30.5664 30.6621 29.7142 30.4687 29.4706L28.9022 30.7139C29.1802 31.0642 30.0417 32.1397 31.816 33.1183C33.5873 34.0952 36.2161 34.9475 40 34.9475V32.9475ZM40 34.9475C43.7812 34.9475 46.4097 34.0952 48.1814 33.1184C49.9559 32.14 50.8187 31.0649 51.0971 30.7146L49.5316 29.47C49.3377 29.7139 48.6679 30.5663 47.2157 31.367C45.7606 32.1693 43.4681 32.9475 40 32.9475V34.9475ZM51.0971 30.7146C51.126 30.6783 51.1312 30.6721 51.1304 30.673C51.1288 30.6749 51.1239 30.6806 51.1165 30.6886C51.1099 30.6958 51.0955 30.7114 51.0752 30.7307C51.0593 30.7458 51.015 30.7872 50.9499 30.831C50.9166 30.8535 50.8592 30.8892 50.7821 30.9218C50.7101 30.9521 50.5737 31 50.3951 31V29C50.0761 29 49.8607 29.1534 49.8329 29.172C49.7649 29.2179 49.7169 29.2623 49.6969 29.2814C49.6536 29.3226 49.6207 29.361 49.6091 29.3747C49.5816 29.4068 49.5501 29.4468 49.5316 29.47L51.0971 30.7146ZM50.3951 31C53.8632 31 56.0522 32.9307 57.6234 34.3361L58.9568 32.8454C57.3837 31.4383 54.6885 29 50.3951 29V31ZM57.6234 34.3361C57.7631 34.4611 57.9011 34.5846 58.0332 34.7001L59.3501 33.1949C59.2279 33.0879 59.0984 32.9721 58.9568 32.8454L57.6234 34.3361ZM58.0332 34.7001C58.0298 34.6972 58.0442 34.7096 58.076 34.748C58.1066 34.7849 58.1457 34.8365 58.1931 34.9056C58.2885 35.0446 58.4018 35.2312 58.5317 35.4665C58.7914 35.9368 59.0917 36.5554 59.4186 37.2814C60.0713 38.731 60.8037 40.5502 61.4931 42.341C62.1815 44.129 62.8223 45.8763 63.2913 47.1776C63.5257 47.8279 63.7169 48.3663 63.8495 48.7417C63.9158 48.9294 63.9674 49.0764 64.0023 49.1763C64.0198 49.2262 64.0332 49.2644 64.0421 49.29C64.0465 49.3028 64.0499 49.3124 64.0521 49.3189C64.0533 49.3221 64.0541 49.3245 64.0546 49.326C64.0549 49.3268 64.0551 49.3274 64.0552 49.3278C64.0553 49.3279 64.0553 49.3281 64.0554 49.3282C64.0554 49.3282 64.0554 49.3283 65 49C65.9446 48.6717 65.9446 48.6717 65.9445 48.6715C65.9445 48.6714 65.9444 48.6712 65.9443 48.671C65.9442 48.6705 65.9439 48.6699 65.9436 48.669C65.943 48.6672 65.9421 48.6647 65.9409 48.6613C65.9386 48.6545 65.9351 48.6445 65.9305 48.6313C65.9213 48.605 65.9077 48.5661 65.89 48.5154C65.8545 48.4139 65.8023 48.2653 65.7354 48.0758C65.6016 47.6969 65.4088 47.1545 65.1728 46.4995C64.7008 45.19 64.0548 43.4282 63.3596 41.6224C62.6654 39.8193 61.9175 37.9601 61.2423 36.4603C60.9052 35.7117 60.5796 35.0379 60.2826 34.4999C60.0093 34.0048 59.6921 33.4941 59.3501 33.1949L58.0332 34.7001ZM65 48H40V50H65V48ZM15 50H40V48H15V50ZM20.6499 33.1949C20.3079 33.4941 19.9907 34.0048 19.7174 34.4999C19.4204 35.0379 19.0948 35.7117 18.7577 36.4603C18.0825 37.9601 17.3346 39.8193 16.6404 41.6224C15.9452 43.4282 15.2992 45.19 14.8272 46.4995C14.5912 47.1545 14.3984 47.6969 14.2646 48.0758C14.1977 48.2653 14.1455 48.4139 14.11 48.5154C14.0923 48.5661 14.0787 48.605 14.0695 48.6313C14.0649 48.6445 14.0614 48.6545 14.0591 48.6613C14.0579 48.6647 14.057 48.6672 14.0564 48.669C14.0561 48.6699 14.0558 48.6705 14.0557 48.671C14.0556 48.6712 14.0555 48.6714 14.0555 48.6715C14.0554 48.6717 14.0554 48.6717 15 49C15.9446 49.3283 15.9446 49.3282 15.9446 49.3282C15.9447 49.3281 15.9447 49.3279 15.9448 49.3278C15.9449 49.3274 15.9451 49.3268 15.9454 49.326C15.9459 49.3245 15.9467 49.3221 15.9479 49.3189C15.9501 49.3124 15.9535 49.3028 15.9579 49.29C15.9668 49.2644 15.9802 49.2262 15.9977 49.1763C16.0326 49.0764 16.0842 48.9294 16.1505 48.7417C16.2831 48.3663 16.4743 47.8279 16.7087 47.1776C17.1777 45.8763 17.8185 44.129 18.5069 42.341C19.1963 40.5502 19.9287 38.731 20.5814 37.2814C20.9083 36.5554 21.2087 35.9368 21.4683 35.4665C21.5982 35.2312 21.7115 35.0446 21.8069 34.9056C21.8543 34.8365 21.8934 34.7849 21.924 34.748C21.9558 34.7096 21.9702 34.6972 21.9668 34.7001L20.6499 33.1949ZM21.0432 32.8454C20.9016 32.9721 20.7721 33.0879 20.6499 33.1949L21.9668 34.7001C22.0989 34.5846 22.2369 34.4611 22.3766 34.3361L21.0432 32.8454Z" fill="#07456B"/>
<path d="M51 13.5C51 18.0566 49.7619 21.4567 47.8677 23.6996C45.9827 25.9316 43.3906 27.0898 40.5 27.0898C34.9073 27.0898 30 21.2992 30 13.5C30 9.66205 31.2086 7.08288 33.0347 5.45073C34.8803 3.80114 37.4899 3 40.5 3C43.607 3 46.1923 3.50585 48.0009 4.9761C49.7656 6.4106 51 8.94187 51 13.5Z" fill="white" stroke="#07456B" stroke-width="2"/>
<path d="M22.8564 37L26.5981 40.6377V42.8574" stroke="#07456B" stroke-width="2" stroke-linecap="round" stroke-linejoin="round"/>
<path d="M54.7316 38.8147L52.8564 40.6377V45.5137" stroke="#07456B" stroke-width="2" stroke-linecap="round" stroke-linejoin="round"/>
<path d="M47 13H43.2289L41 15.1771V21" stroke="#07456B" stroke-width="2" stroke-linecap="round" stroke-linejoin="round"/>
<path d="M26.5981 46.0143V46.3694" stroke="#07456B" stroke-width="2" stroke-linecap="round"/>
<path d="M57 36.9999V37.355" stroke="#07456B" stroke-width="2" stroke-linecap="round"/>
<path d="M37.377 13H35" stroke="#07456B" stroke-width="2" stroke-linecap="round" stroke-linejoin="round"/>
<path d="M27.5 33C27.5 33 33.5999 37.5275 40.5 37.5275C43.9679 37.5275 47 36.6698 49.5963 34.9544C50.1713 34.5745 50.7249 34.1526 51.2571 33.6886C51.5095 33.4685 52 33 52 33" stroke="#07456B" stroke-width="2" stroke-linecap="round" stroke-linejoin="round"/>
</svg>
