[
    {

        "Code": "005",
        "Description": "Personal consumption"
    },
    {
        "Code": "037",
        "Description": "Booking Fee - Car"
    },
    {
        "Code": "038",
        "Description": "Debt Consolidation"
    },
    {
        "Code": "039",
        "Description": "Education"
    },
    {
        "Code": "040",
        "Description": "Electrical Goods"
    },
    {
        "Code": "041",
        "Description": "Home Furnishing/Equipment"
    },
    {
        "Code": "042",
        "Description": "Medical Expenses"
    },
    {
        "Code": "043",
        "Description": "Online Financing"
    },
    {
        "Code": "044",
        "Description": "Personal Refinancing"
    },
    {
        "Code": "045",
        "Description": "Property/House Downpayment"
    },
    {
        "Code": "046",
        "Description": "Renovation"
    },
    {

        "Code": "005",

        "Description": "Personal consumption"
    },
    {
        "Code": "037",
        "Description": "Booking Fee - Car"
    },
    {
        "Code": "038",
        "Description": "Debt Consolidation"
    },
    {
        "Code": "039",
        "Description": "Education"
    },
    {
        "Code": "040",
        "Description": "Electrical Goods"
    },
    {
        "Code": "041",
        "Description": "Home Furnishing/Equipment"
    },
    {
        "Code": "042",
        "Description": "Medical Expenses"
    },
    {
        "Code": "043",
        "Description": "Online Financing"
    },
    {
        "Code": "044",
        "Description": "Personal Refinancing"
    },
    {
        "Code": "045",
        "Description": "Property/House Downpayment"
    },
    {
        "Code": "046",
        "Description": "Renovation"
    },
    {

        "Code": "047",
        "Description": "Travel"
    }
]