[
  {
    "Code": "001",
    "Description": "Accountant"
  },
  {
    "Code": "005",
    "Description": "Army Officer"
  },
  {
    "Code": "007",
    "Description": "Assistant Director"
  },
  {
    "Code": "008",
    "Description": "Assistant Manager"
  },
  {
    "Code": "009",
    "Description": "Auditor"
  },
  {
    "Code": "010",
    "Description": "Baker"
  },
  {
    "Code": "011",
    "Description": "Beautician"
  },
  {
    "Code": "012",
    "Description": "Broker"
  },
  {
    "Code": "013",
    "Description": "Business Partner"
  },
  {
    "Code": "014",
    "Description": "Businessman/Businesswoman"
  },
  {
    "Code": "015",
    "Description": "Carpenter"
  },
  {
    "Code": "016",
    "Description": "Cashier"
  },
  {
    "Code": "017",
    "Description": "CEO"
  },
  {
    "Code": "018",
    "Description": "Chairman"
  },
  {
    "Code": "019",
    "Description": "Chief Accountant"
  },
  {
    "Code": "020",
    "Description": "Chief Auditor"
  },
  {
    "Code": "022",
    "Description": "Co-Director"
  },
  {
    "Code": "023",
    "Description": "Consultant"
  },
  {
    "Code": "024",
    "Description": "Contractor"
  },
  {
    "Code": "025",
    "Description": "Financial Controller"
  },
  {
    "Code": "026",
    "Description": "Coordinator"
  },
  {
    "Code": "027",
    "Description": "Copywriter"
  },
  {
    "Code": "028",
    "Description": "Dealer/Distributor"
  },
  {
    "Code": "029",
    "Description": "Dentist"
  },
  {
    "Code": "031",
    "Description": "Despatch"
  },
  {
    "Code": "032",
    "Description": "Detective"
  },
  {
    "Code": "034",
    "Description": "Diplomat"
  },
  {
    "Code": "035",
    "Description": "Director"
  },
  {
    "Code": "036",
    "Description": "Doctor"
  },
  {
    "Code": "038",
    "Description": "Electrician"
  },
  {
    "Code": "040",
    "Description": "Executive"
  },
  {
    "Code": "041",
    "Description": "Executive Director"
  },
  {
    "Code": "042",
    "Description": "Exporter"
  },
  {
    "Code": "043",
    "Description": "Farmer"
  },
  {
    "Code": "044",
    "Description": "Foreman"
  },
  {
    "Code": "045",
    "Description": "Gardener"
  },
  {
    "Code": "046",
    "Description": "General Manager"
  },
  {
    "Code": "047",
    "Description": "Goldsmith"
  },
  {
    "Code": "048",
    "Description": "Hairdresser"
  },
  {
    "Code": "049",
    "Description": "Hawker"
  },
  {
    "Code": "050",
    "Description": "Housewife"
  },
  {
    "Code": "051",
    "Description": "Homemaker"
  },
  {
    "Code": "053",
    "Description": "Investor"
  },
  {
    "Code": "054",
    "Description": "Jeweller"
  },
  {
    "Code": "055",
    "Description": "Judge"
  },
  {
    "Code": "057",
    "Description": "Lawyer/Barrister/Solicitor"
  },
  {
    "Code": "058",
    "Description": "Lender"
  },
  {
    "Code": "060",
    "Description": "Managing Director"
  },
  {
    "Code": "061",
    "Description": "Manufacturer"
  },
  {
    "Code": "063",
    "Description": "Money Lender"
  },
  {
    "Code": "064",
    "Description": "Money-Changer"
  },
  {
    "Code": "068",
    "Description": "Owner/Co-Owner"
  },
  {
    "Code": "070",
    "Description": "Partner"
  },
  {
    "Code": "071",
    "Description": "Pastor"
  },
  {
    "Code": "072",
    "Description": "Physician"
  },
  {
    "Code": "073",
    "Description": "Plumber"
  },
  {
    "Code": "075",
    "Description": "Principal"
  },
  {
    "Code": "076",
    "Description": "Programmer"
  },
  {
    "Code": "077",
    "Description": "Quantity Surveyor"
  },
  {
    "Code": "078",
    "Description": "Remiser"
  },
  {
    "Code": "079",
    "Description": "Retailer"
  },
  {
    "Code": "080",
    "Description": "Retiree"
  },
  {
    "Code": "082",
    "Description": "Secretary"
  },
  {
    "Code": "083",
    "Description": "Self-Employed"
  },
  {
    "Code": "084",
    "Description": "Smallholder"
  },
  {
    "Code": "085",
    "Description": "Stockbroker"
  },
  {
    "Code": "086",
    "Description": "Store-Keeper"
  },
  {
    "Code": "087",
    "Description": "Student"
  },
  {
    "Code": "088",
    "Description": "Sub-contractor"
  },
  {
    "Code": "090",
    "Description": "Supplier"
  },
  {
    "Code": "091",
    "Description": "Tailor/Dressmaker"
  },
  {
    "Code": "094",
    "Description": "Tourist Guide"
  },
  {
    "Code": "095",
    "Description": "Trader"
  },
  {
    "Code": "096",
    "Description": "Valuer"
  },
  {
    "Code": "097",
    "Description": "Vice President"
  },
  {
    "Code": "098",
    "Description": "Waiter/Waitress"
  },
  {
    "Code": "099",
    "Description": "Welder"
  },
  {
    "Code": "100",
    "Description": "Wholesaler"
  },
  {
    "Code": "101",
    "Description": "Fisherman"
  },
  {
    "Code": "102",
    "Description": "Grocer"
  },
  {
    "Code": "104",
    "Description": "Unemployed"
  },
  {
    "Code": "105",
    "Description": "Babysitter"
  },
  {
    "Code": "107",
    "Description": "Sole proprietor"
  },
  {
    "Code": "108",
    "Description": "Politician"
  },
  {
    "Code": "109",
    "Description": "Actor"
  },
  {
    "Code": "110",
    "Description": "Adjusters"
  },
  {
    "Code": "111",
    "Description": "Air Hostess"
  },
  {
    "Code": "112",
    "Description": "Aquaculture"
  },
  {
    "Code": "115",
    "Description": "Athlete"
  },
  {
    "Code": "116",
    "Description": "Auctioner"
  },
  {
    "Code": "117",
    "Description": "Author"
  },
  {
    "Code": "118",
    "Description": "Bell Boy"
  },
  {
    "Code": "119",
    "Description": "Biographer"
  },
  {
    "Code": "120",
    "Description": "Butcher"
  },
  {
    "Code": "121",
    "Description": "Catering"
  },
  {
    "Code": "122",
    "Description": "Chargeman"
  },
  {
    "Code": "123",
    "Description": "Chemist, Physicist"
  },
  {
    "Code": "124",
    "Description": "Choreographer/Dancer"
  },
  {
    "Code": "125",
    "Description": "Circus Performer"
  },
  {
    "Code": "126",
    "Description": "Civil Servant"
  },
  {
    "Code": "127",
    "Description": "Clergy"
  },
  {
    "Code": "128",
    "Description": "Coach"
  },
  {
    "Code": "129",
    "Description": "Composer"
  },
  {
    "Code": "130",
    "Description": "Decorator"
  },
  {
    "Code": "131",
    "Description": "Direct Sales"
  },
  {
    "Code": "132",
    "Description": "Economist"
  },
  {
    "Code": "133",
    "Description": "Editor"
  },
  {
    "Code": "135",
    "Description": "Fireman"
  },
  {
    "Code": "136",
    "Description": "Fishmonger"
  },
  {
    "Code": "137",
    "Description": "Florist"
  },
  {
    "Code": "138",
    "Description": "Forestry"
  },
  {
    "Code": "139",
    "Description": "Freight forwarding services"
  },
  {
    "Code": "140",
    "Description": "General Worker"
  },
  {
    "Code": "142",
    "Description": "Hunter"
  },
  {
    "Code": "143",
    "Description": "Journalist"
  },
  {
    "Code": "144",
    "Description": "Launderer/Dry Cleaner"
  },
  {
    "Code": "145",
    "Description": "Librarian/Curator"
  },
  {
    "Code": "146",
    "Description": "Locksmith"
  },
  {
    "Code": "147",
    "Description": "Magician"
  },
  {
    "Code": "149",
    "Description": "Model"
  },
  {
    "Code": "150",
    "Description": "Newscaster"
  },
  {
    "Code": "151",
    "Description": "NGO Staff/Volunteer"
  },
  {
    "Code": "152",
    "Description": "Nursery Worker & Gardener"
  },
  {
    "Code": "154",
    "Description": "Pharmacist"
  },
  {
    "Code": "155",
    "Description": "Photographer"
  },
  {
    "Code": "156",
    "Description": "Postman"
  },
  {
    "Code": "157",
    "Description": "Priest/Nun"
  },
  {
    "Code": "158",
    "Description": "Promoter"
  },
  {
    "Code": "159",
    "Description": "Proof Reader"
  },
  {
    "Code": "160",
    "Description": "Psychiatrist"
  },
  {
    "Code": "161",
    "Description": "Psychologist"
  },
  {
    "Code": "162",
    "Description": "Sailor"
  },
  {
    "Code": "163",
    "Description": "Security/BodyGuard"
  },
  {
    "Code": "164",
    "Description": "Shop Assistant"
  },
  {
    "Code": "165",
    "Description": "Singer"
  },
  {
    "Code": "166",
    "Description": "Social Worker"
  },
  {
    "Code": "168",
    "Description": "Town Planner"
  },
  {
    "Code": "169",
    "Description": "Translator/Interpreter"
  },
  {
    "Code": "170",
    "Description": "Upholsterer"
  },
  {
    "Code": "171",
    "Description": "Warden"
  },
  {
    "Code": "172",
    "Description": "Bank Officer"
  },
  {
    "Code": "175",
    "Description": "Astronaut / Astronomer / Astrologer"
  },
  {
    "Code": "176",
    "Description": "President"
  },
  {
    "Code": "200",
    "Description": "Production and Manufacturing Managers"
  },
  {
    "Code": "201",
    "Description": "Hospitality, Retail and Other Services Managers"
  },
  {
    "Code": "202",
    "Description": "Information and Communications Technology Managers"
  },
  {
    "Code": "203",
    "Description": "Services Managers"
  },
  {
    "Code": "204",
    "Description": "Metereologists and Seismologists"
  },
  {
    "Code": "205",
    "Description": "Geologists and Geophysicists"
  },
  {
    "Code": "206",
    "Description": "Farming, Forestry and Fisheries Advisers"
  },
  {
    "Code": "207",
    "Description": "Other Life Science Professionals"
  },
  {
    "Code": "208",
    "Description": "Landscape Architects"
  },
  {
    "Code": "209",
    "Description": "Product and Garment Designers"
  },
  {
    "Code": "210",
    "Description": "Graphic and Multimedia Designers"
  },
  {
    "Code": "211",
    "Description": "Ships Engineers"
  },
  {
    "Code": "212",
    "Description": "Aircraft Pilots and Related Professionals"
  },
  {
    "Code": "213",
    "Description": "Other Ship, Aircraft and Train/Locomotive Controllers"
  },
  {
    "Code": "214",
    "Description": "University and Higher Education Teachers"
  },
  {
    "Code": "215",
    "Description": "Vocational Education Teachers"
  },
  {
    "Code": "216",
    "Description": "Secondary Education Teachers"
  },
  {
    "Code": "217",
    "Description": "Primary School and Early Childhood Teachers"
  },
  {
    "Code": "218",
    "Description": "Music, Arts and Performing Arts Teachers"
  },
  {
    "Code": "219",
    "Description": "Language Teachers"
  },
  {
    "Code": "220",
    "Description": "Technology Skill and Technical Trainers"
  },
  {
    "Code": "221",
    "Description": "System Analysts"
  },
  {
    "Code": "222",
    "Description": "Web and Multimedia Developers"
  },
  {
    "Code": "223",
    "Description": "Software and Applications Developers and Analysts n.e.c."
  },
  {
    "Code": "224",
    "Description": "Database Designers and Administrators"
  },
  {
    "Code": "225",
    "Description": "Information Technology System Administrators"
  },
  {
    "Code": "226",
    "Description": "Other Database and Network Professionals"
  },
  {
    "Code": "227",
    "Description": "Legal Professionals n.e.c."
  },
  {
    "Code": "228",
    "Description": "Sociologists, Anthropologists and Related Professionals"
  },
  {
    "Code": "229",
    "Description": "Philosophers, Historians and Political Scientist"
  },
  {
    "Code": "230",
    "Description": "Film, Stage and Related Directors and Producers"
  },
  {
    "Code": "231",
    "Description": "Animals Keepers and Trainers"
  },
  {
    "Code": "232",
    "Description": "Professional Customs and Border Inspectors"
  },
  {
    "Code": "233",
    "Description": "Professional Taxation and Excise Officials"
  },
  {
    "Code": "234",
    "Description": "Professional Government Social Benefits Officials"
  },
  {
    "Code": "235",
    "Description": "Professional Government Licensing Officials"
  },
  {
    "Code": "236",
    "Description": "Professional Civil Defence Officials"
  },
  {
    "Code": "237",
    "Description": "Physical and Engineering Science Technicians"
  },
  {
    "Code": "238",
    "Description": "Mining, Manufacturing and Construction Supervisors"
  },
  {
    "Code": "239",
    "Description": "Process Control Technicians"
  },
  {
    "Code": "240",
    "Description": "Life Science Technicians and Related Associate Professionals"
  },
  {
    "Code": "241",
    "Description": "Ship, Aircraft and Train Technicians"
  },
  {
    "Code": "242",
    "Description": "Nuclear Science Associate Professionals"
  },
  {
    "Code": "243",
    "Description": "Medical And Pharmaceutical Technicians"
  },
  {
    "Code": "244",
    "Description": "Traditional and Complementary Medicine Associate Professionals"
  },
  {
    "Code": "245",
    "Description": "Veterinary Technicians and Assistants"
  },
  {
    "Code": "246",
    "Description": "Dental Assistants and Therapists"
  },
  {
    "Code": "247",
    "Description": "Medical Records and Health Information Technicians"
  },
  {
    "Code": "248",
    "Description": "Dispensing Opticians"
  },
  {
    "Code": "249",
    "Description": "Physiotherapy Technicians and Assistants"
  },
  {
    "Code": "250",
    "Description": "Medical Assistants"
  },
  {
    "Code": "251",
    "Description": "Health Associate Professionals Not Elsewhere Classified"
  },
  {
    "Code": "252",
    "Description": "Statistical, Mathematical and Actuarial Associate Professionals"
  },
  {
    "Code": "253",
    "Description": "Insurance Agent"
  },
  {
    "Code": "254",
    "Description": "Commercial Sales Agent"
  },
  {
    "Code": "255",
    "Description": "Buyers"
  },
  {
    "Code": "256",
    "Description": "Administrative Associate Professionals"
  },
  {
    "Code": "257",
    "Description": "Administrative and Executive Secretaries"
  },
  {
    "Code": "258",
    "Description": "Other Administrative and Specialized Associate Professionals"
  },
  {
    "Code": "259",
    "Description": "Legal Associate Professionals"
  },
  {
    "Code": "260",
    "Description": "Social and Religous Associate Professionals"
  },
  {
    "Code": "261",
    "Description": "Fitness and Recreation Instructors and Program Leaders"
  },
  {
    "Code": "262",
    "Description": "Gallery, Museum and Library Technicians"
  },
  {
    "Code": "263",
    "Description": "Cultural Associate Professionals"
  },
  {
    "Code": "264",
    "Description": "Artistic And Cultural Associate Professionals Not Elsewhere Classified"
  },
  {
    "Code": "265",
    "Description": "Customs and Border Inspector Associate Professionals"
  },
  {
    "Code": "266",
    "Description": "Taxation and Excise Official Associate Professionals"
  },
  {
    "Code": "267",
    "Description": "Government Social Benefit Official Associate Professionals"
  },
  {
    "Code": "268",
    "Description": "Government Licensing Official Associate Professionals"
  },
  {
    "Code": "269",
    "Description": "Civil Defence Associate Professionals"
  },
  {
    "Code": "270",
    "Description": "General Office Clerks"
  },
  {
    "Code": "271",
    "Description": "Data Entry Clerks"
  },
  {
    "Code": "272",
    "Description": "Bank Tellers and Related Clerks"
  },
  {
    "Code": "273",
    "Description": "Travel Consultants and Related Clerks"
  },
  {
    "Code": "274",
    "Description": "Contact/Call Centre Information Clerks"
  },
  {
    "Code": "275",
    "Description": "Telephone Switchboard Operators"
  },
  {
    "Code": "276",
    "Description": "Receptionists"
  },
  {
    "Code": "277",
    "Description": "Enquiry Clerks"
  },
  {
    "Code": "278",
    "Description": "Numerical and Material Recording Clerks"
  },
  {
    "Code": "279",
    "Description": "Transport Conductors"
  },
  {
    "Code": "280",
    "Description": "Cooks"
  },
  {
    "Code": "281",
    "Description": "Building and Housekeeping Supervisors"
  },
  {
    "Code": "282",
    "Description": "Street Food Salespersons"
  },
  {
    "Code": "283",
    "Description": "Sales Demonstrators"
  },
  {
    "Code": "284",
    "Description": "Teachers Aide"
  },
  {
    "Code": "285",
    "Description": "Personal Care Workers in Health Services Not Elsewhere Classified"
  },
  {
    "Code": "286",
    "Description": "Immigration/Custom Officers and Assistant"
  },
  {
    "Code": "287",
    "Description": "Protective Services Workers n.e.c."
  },
  {
    "Code": "288",
    "Description": "Livestock and Dairy Producers"
  },
  {
    "Code": "289",
    "Description": "Animal Producers and Related Workers Not Elsewhere Classified"
  },
  {
    "Code": "290",
    "Description": "Mixed Crop and Animal Producers"
  },
  {
    "Code": "291",
    "Description": "Subsistence Farmers, Fisherman, Hunters and Gatherers"
  },
  {
    "Code": "292",
    "Description": "House Builders"
  },
  {
    "Code": "293",
    "Description": "Air Conditioning and Refrigeration Mechanics"
  },
  {
    "Code": "294",
    "Description": "Other Building Finishers and Related Trades Workers"
  },
  {
    "Code": "295",
    "Description": "Spray Painters and Varnishers"
  },
  {
    "Code": "296",
    "Description": "Building Structure Cleaners"
  },
  {
    "Code": "297",
    "Description": "Metal Moulders and Coremakers"
  },
  {
    "Code": "298",
    "Description": "Other Sheet and Structural Metal Workers, Moulders and Welders and Related Workers"
  },
  {
    "Code": "299",
    "Description": "Metal Working Machine Tool Setters and Operators"
  },
  {
    "Code": "300",
    "Description": "Aircraft Engine Mechanics and Repairers"
  },
  {
    "Code": "301",
    "Description": "Agricultural and Industrial Machinery Mechanics and Repairers"
  },
  {
    "Code": "302",
    "Description": "Bicycle and Related Repairers"
  },
  {
    "Code": "303",
    "Description": "Machinery Mechanics and Repairers Not Elsewhere Classified"
  },
  {
    "Code": "304",
    "Description": "Sign Writers, Decorative Painters, Engravers and Etchers"
  },
  {
    "Code": "305",
    "Description": "Pre-press Workers"
  },
  {
    "Code": "306",
    "Description": "Other Printing Trades Workers"
  },
  {
    "Code": "307",
    "Description": "Electrical Mechanics and Fitters"
  },
  {
    "Code": "308",
    "Description": "Electronics Mechanics and Servicers"
  },
  {
    "Code": "309",
    "Description": "Information and Communications Technology Installers and Services"
  },
  {
    "Code": "310",
    "Description": "Other Food Processing and Related Trades Workers"
  },
  {
    "Code": "311",
    "Description": "Woodworking-Machine Tool Setters and Operators"
  },
  {
    "Code": "312",
    "Description": "Other Wood Treaters, Cabinet-Makers and Related Trades Workers"
  },
  {
    "Code": "313",
    "Description": "Other Garment and Related Trades Workers"
  },
  {
    "Code": "314",
    "Description": "Other Craft and Related Workers"
  },
  {
    "Code": "315",
    "Description": "Stationary Plant and Machine Operators"
  },
  {
    "Code": "316",
    "Description": "Mechanical Machinery Assemblers"
  },
  {
    "Code": "317",
    "Description": "Assemblers Not Elsewhere Classified"
  },
  {
    "Code": "318",
    "Description": "Machine-Tool Setter-Operators"
  },
  {
    "Code": "319",
    "Description": "Locomotive Engine Drivers"
  },
  {
    "Code": "320",
    "Description": "Railway Brake, Signal and Switch Operators"
  },
  {
    "Code": "321",
    "Description": "Heavy Truck and Bus Drivers"
  },
  {
    "Code": "322",
    "Description": "Mobile Plant Operators"
  },
  {
    "Code": "323",
    "Description": "Mining and Construction Labourers"
  },
  {
    "Code": "324",
    "Description": "Hand and Pedal Vehicle Drivers"
  },
  {
    "Code": "325",
    "Description": "Animal-Drawn Machinery and Vehicle Drivers"
  },
  {
    "Code": "326",
    "Description": "Transport and Storage Labourers"
  },
  {
    "Code": "327",
    "Description": "Shelf Fillers"
  },
  {
    "Code": "328",
    "Description": "Food Preparation Assistant"
  },
  {
    "Code": "329",
    "Description": "Street and Related Sales and Services Workers"
  },
  {
    "Code": "330",
    "Description": "Refuse Workers and Other Elementary Workers"
  },
  {
    "Code": "331",
    "Description": "Nursing and Midwifery Associate Professionals"
  },
  {
    "Code": "332",
    "Description": "Police Officers- Protective Service Workers"
  },
  {
    "Code": "333",
    "Description": "Other Outside Labour Force "
  },
  {
    "Code": "334",
    "Description": "Financial and Investment Advisers"
  },
  {
    "Code": "335",
    "Description": "Business Services Agent"
  },
  {
    "Code": "336",
    "Description": "Health Care Assistants"
  },
  {
    "Code": "337",
    "Description": "Other Clerical Support Workers"
  },
  {
    "Code": "338",
    "Description": "Interior Designers and Decorators"
  },
  {
    "Code": "339",
    "Description": "Software Developers"
  },
  {
    "Code": "340",
    "Description": "Car,van and motorcycle Drivers "
  },
  {
    "Code": "341",
    "Description": "Engineering Professionals (including Electrotechnology)"
  },
  {
    "Code": "342",
    "Description": "Driving Instructors"
  },
  {
    "Code": "343",
    "Description": "Manufacturing Labourers"
  },
  {
    "Code": "344",
    "Description": "Administrative and Commercial Managers"
  },
  {
    "Code": "345",
    "Description": "Motor Vehicle Mechanics and Repairers"
  },
  {
    "Code": "346",
    "Description": "Nursing and Midwifery Profesisonals "
  },
  {
    "Code": "347",
    "Description": "Typist and Word Processor Operators"
  },
  {
    "Code": "348",
    "Description": "Painters and Related Workers"
  },
  {
    "Code": "349",
    "Description": "Police Officers"
  },
  {
    "Code": "350",
    "Description": "Stall and Market Salespersons"
  },
  {
    "Code": "351",
    "Description": "Shop Supervisors"
  },
  {
    "Code": "352",
    "Description": "Other Teaching Professionals"
  },
  {
    "Code": "353",
    "Description": "Information and Communications Technicians"
  },
  {
    "Code": "354",
    "Description": "Ships Deck Officers and Pilots"
  },
  {
    "Code": "355",
    "Description": "Chefs"
  },
  {
    "Code": "356",
    "Description": "Building Architects"
  },
  {
    "Code": "357",
    "Description": "Visual Artists"
  },
  {
    "Code": "358",
    "Description": "Creative and Performing Artists n.e.c."
  },
  {
    "Code": "359",
    "Description": "Regulatory Government Professionals Not Elsewhere Classified"
  },
  {
    "Code": "360",
    "Description": "Cleaners and Helpers"
  },
  {
    "Code": "361",
    "Description": "Optometrists and Ophthalmic Opticians"
  },
  {
    "Code": "362",
    "Description": "Mathematicians, Actuaries and Statisticians"
  },
  {
    "Code": "363",
    "Description": "Financial Analysts"
  },
  {
    "Code": "364",
    "Description": "Administrative Professional"
  },
  {
    "Code": "365",
    "Description": "Other Legislators and Senior Official"
  },
  {
    "Code": "366",
    "Description": "Personal Assistant"
  }
]