{
  "questions": [
   {
     "id": "2f14deb6-8694-4cf9-856f-xxxxx",
     "title": "Hi, how are you? I'm Iris from iMoney, your awesome guide to getting the best personal loan for your needs.",
     "renderType": "string",
     "inputName": "email",
     "type": "openEnded",
     "required": false,
     "options": [],
     "isMultipleChoice": false,
     "responder": "iris",
     "placeholder": "",
     "inputType": "hidden",
     "autoScrollNextQues": true
   },
   {
    "id": "2f14deb6-8694-4cf9-856f-2917fb1e9d5f",
    "title": "Tell me more about your personal loan needs. Why do you need a loan? ",
    "dataDescription": "Q1-Loan Reason",
    "renderType": "string",
    "inputName": "loan category",
    "type": "Radio",
    "required": true,
    "options": [
     {
      "id": "5c3c5877-3cc7-4afb-808e-f33468aaac38",
      "dataValue": "Pay off my credit card bills",
      "name": "loan_reason",
      "code": "optionone",
      "value": "Pay off my credit card bills"
     },
     {
      "id": "bc60123a-9e09-4aaf-b4e8-0dcad5df4e68",
      "dataValue": "Compare and get a new personal loan",
      "name": "loan_reason",
      "code": "optiontwo",
      "value": "Compare and get a new personal loan"
     },
     {
      "id": "3ca6601f-079a-4de8-bc7c-1957c54c971f",
      "dataValue": "Refinance an existing loan",
      "name": "loan_reason",
      "code": "optionthree",
      "value": "Refinance an existing loan"
     },
     {
      "id": "8e454caf-e226-47a1-b648-161ccbb26f88",
      "dataValue": "Others",
      "name": "loan_reason",
      "code": "optionfour",
      "value": "Others"
     }
    ],
    "isMultipleChoice": false,
    "responder": "iris",
    "placeholder": " ",
    "inputType": "hidden",
    "autoScrollNextQues": false,
    "validation": {
     "default": {
      "value": "",
      "message": "Please select one"
     }
    }
   },
   {
    "id": "2b41962b-7e6e-485d-826e-5a8fee948a2e",
    "title": "Awesome, let's get started. What is your employment status? Pick one.",
    "dataDescription": "Q2-Employment Status",
    "renderType": "string",
    "inputName": "employment Status",
    "type": "Radio",
    "required": true,
    "options": [
     {
      "id": "616e534c-8bda-40de-b40c-3fa24ac9684b",
      "dataValue": "I'm Self Employed",
      "name": "employment_status",
      "code": "option1",
      "value": "I'm Self Employed"
     },
     {
      "id": "050fd704-0eeb-4eeb-98a2-315fc32061ee",
      "dataValue": "I'm an Employee",
      "name": "employment_status",
      "code": "option2",
      "value": "I'm an Employee"
     },
     {
      "id": "1319c918-976f-4304-aaf7-f9bf8ccbdadf",
      "dataValue": "I work for the Goverment",
      "name": "employment_status",
      "code": "option3",
      "value": "I work for the Goverment"
     },
     {
      "id": "e25d5fd1-ed95-4e55-b590-25e393bfa3e4",
      "dataValue": "I'm Unemployed",
      "name": "employment_status",
      "code": "option4",
      "value": "I'm Unemployed"
     }
    ],
    "isMultipleChoice": false,
    "responder": "iris",
    "placeholder": "",
    "inputType": "hidden",
    "autoScrollNextQues": false,
    "validation": {
     "default": {
      "value": "",
      "message": "Please select one"
     }
    }
   },
   {
    "id": "b075339b-c4ba-42ac-8c0b-42e864c318da",
    "dataDescription": "Q3-Loan Amount",
    "dataValue": "loan_amount",
    "title": "Okay, how much do you want to borrow?",
    "renderType": "string",
    "inputName": "loan amount",
    "type": "openEnded",
    "required": true,
    "options": [],
    "isMultipleChoice": false,
    "responder": "iris",
    "placeholder": "Your loan amount",
    "inputType": "number",
    "autoScrollNextQues": false,
    "validation": {
     "default": {
      "value": "",
      "message": "Please enter your loan amount"
     },
     "regex": {
      "value": "number",
      "message": "Loan amount must be a number (eg: 3000)"
     }
    }
   },
   {
    "id": "92313b54-e917-4398-b3ab-7caec3077554",
    "dataDescription": "Q4-Monthly Salary",
    "dataValue": "monthly_salary",
    "title": "Next, how much is your average monthly take home pay?",
    "renderType": "string",
    "inputName": "income",
    "type": "openEnded",
    "required": true,
    "options": [],
    "isMultipleChoice": false,
    "responder": "iris",
    "placeholder": "Your income amount",
    "inputType": "number",
    "autoScrollNextQues": false,
    "validation": {
     "default": {
      "value": "",
      "message": "Please enter your income"
     },
     "regex": {
      "value": "number",
      "message": "Income amount must be a number (eg: 3000)"
     },
     "minValue": {
      "value": 1000,
      "message": "Please enter a valid monthly salary"
     }
    }
   },
   {
    "id": "18cf0af9-e71e-4667-ba6a-302959086d67",
    "title": "Last one, how much do you pay for your commitments every month? Enter '0' if it's not applicable.",
    "renderType": "string",
    "inputName": "emi categories",
    "type": "openEnded",
    "required": false,
    "options": [],
    "isMultipleChoice": false,
    "responder": "iris",
    "placeholder": "",
    "inputType": "number",
    "autoScrollNextQues": true
   },
   {
    "id": "ba91bdd6-7bf4-40b7-9caa-d41101f3034e",
    "dataDescription": "Q5-Home Loan Commitment",
    "dataValue": "home_loan_commitment",
    "title": "<div class='commitment commitment--home-loan'></div>Home Loan",
    "renderType": "html",
    "inputName": "emi home loan",
    "type": "openEnded",
    "required": false,
    "options": [],
    "isMultipleChoice": false,
    "responder": "iris",
    "placeholder": "Your Home loan amount",
    "inputType": "number",
    "autoScrollNextQues": false
   },
   {
    "id": "29544ad0-f57e-42cb-987e-1c41d2153e80",
    "dataDescription": "Q6-Car Loan Commitment",
    "dataValue": "car_loan_commitment",
    "title": "<div class='commitment commitment--car'></div>Car Loan",
    "renderType": "html",
    "inputName": "emi car loan",
    "type": "openEnded",
    "required": false,
    "options": [],
    "isMultipleChoice": false,
    "responder": "iris",
    "placeholder": "Your car loan amount",
    "inputType": "number",
    "autoScrollNextQues": false
   },
   {
    "id": "5d84663e-c014-472b-81ab-01511fcd91f3",
    "dataDescription": "Q7-Education Loan Commitment",
    "dataValue": "education_loan_commitment",
    "title": "<div class='commitment commitment--education'></div>Education",
    "renderType": "html",
    "inputName": "emi education loan",
    "type": "openEnded",
    "required": false,
    "options": [],
    "isMultipleChoice": false,
    "responder": "iris",
    "placeholder": "Your education loan amount",
    "inputType": "number",
    "autoScrollNextQues": false
   },
   {
    "id": "8241b422-0245-400b-8df2-5134a416d417",
    "dataDescription": "Q8-Credit Card Commitment",
    "dataValue": "credit_card_commitment",
    "title": "<div class='commitment commitment--credit-card'></div>Credit Card",
    "renderType": "html",
    "inputName": "emi credit card loan",
    "type": "openEnded",
    "required": false,
    "options": [],
    "isMultipleChoice": false,
    "responder": "iris",
    "placeholder": "Your Credit Card loan amount",
    "inputType": "number",
    "autoScrollNextQues": false
   },
   {
    "id": "9499a32b-8f6d-40c0-a174-13e6cb403f4f",
    "dataDescription": "Q9-Other Loan Commitment",
    "dataValue": "personal_loan_commitment",
    "title": "<div class='commitment commitment--personal-loan'></div>Personal Loan",
    "renderType": "html",
    "inputName": "emi personal loan",
    "type": "openEnded",
    "required": false,
    "options": [],
    "isMultipleChoice": false,
    "responder": "iris",
    "placeholder": "Your personal loan amount",
    "inputType": "number",
    "autoScrollNextQues": false
   },
   {
     "id": "347b00f6-ed2e-4b65-b35d-245aac774310",
     "dataDescription": "Q10-Name",
     "dataValue": "name",
     "title": "Thanks for sharing all that! Give us your contact details so that we can better assist you in the future. What is your name?",
     "renderType": "string",
     "inputName": "name",
     "type": "openEnded",
     "required": true,
     "options": [],
     "isMultipleChoice": false,
     "placeholder": "Your name",
     "responder": "iris",
     "inputType": "text",
     "autoScrollNextQues": false,
     "validation": {
       "default": {
        "value": "",
        "message": "Please enter your name"
       },
       "regex": {
        "value": "name",
        "message": "Please enter your name in alphabet only"
       },
       "minLength": {
        "value": 3,
        "message": "Please enter your name with at least 3 letters"
       },
       "maxLenght": {
        "value": 128,
        "message": "The name entered is too long. How about trying a shorter name?"
       }
     }
    },
   {
    "id": "71d5fa80-e515-46f8-b2b4-8cd338c353f0",
    "title": "Can we have your email address, so we can share the latest personal finance news and best personal loan deals with you?",
    "renderType": "string",
    "inputName": "email",
    "type": "openEnded",
    "required": false,
    "options": [],
    "isMultipleChoice": false,
    "responder": "iris",
    "placeholder": "mohammad@email.com",
    "inputType": "email",
    "autoScrollNextQues": true
   },
   {
    "id": "9f94e3e4-e4e5-4cab-b707-58e383ac2172",
    "dataDescription": "Q11-Email",
    "dataValue": "email_address",
    "title": "Thank you for agreeing to let us process your information according to our <a href='https://www.imoney.my/privacy-statement' target='_blank'>Privacy Policy</a>.)",
    "renderType": "string",
    "inputName": "email",
    "type": "openEnded",
    "required": true,
    "options": [],
    "isMultipleChoice": false,
    "responder": "iris",
    "placeholder": "mohammad@email.com",
    "inputType": "email",
    "autoScrollNextQues": false,
    "validation": {
     "default": {
      "value": "",
      "message": "Your e-mail is required"
     },
     "regex": {
      "value": "email",
      "message": "Please enter a valid email address (eg: iris@email.com)"
     }
    }
   },
   {
    "id": "92711c6e-71d3-423a-a0c8-1c7a1b9e4ae9",
    "dataDescription": "Q12-Phone Number",
    "dataValue": "phone_number",
    "title": "Our iMoney Consultant will give you a call for an eligibility check and consultation. What is your contact number?",
    "renderType": "string",
    "inputName": "phone",
    "type": "openEnded",
    "required": true,
    "options": [],
    "isMultipleChoice": false,
    "responder": "iris",
    "placeholder": "0123456789",
    "inputType": "number",
    "autoScrollNextQues": false,
    "validation": {
     "default": {
      "value": "",
      "message": "Your phone number is required"
     },
     "regex": {
      "value": "phone",
      "message": "Please enter a valid phone number (eg: 0123456789)"
     },
     "maxLenght": {
      "value": 13,
      "message": "Your phone number should be less than 13 digits"
     },
     "minLength": {
      "value": 9,
      "message": "Your phone number should be more than 9 digits"
     }
    }
   },
   {
    "id": "b869de71-2b37-4e01-9994-023cc6ce6f9d",
    "title": "Thank you, {{ name }}. Your application has been received and you will be expecting a call from us in 1-2 days to assist you further.",
    "renderType": "string",
    "inputName": "auto",
    "type": "openEnded",
    "required": false,
    "options": [],
    "isMultipleChoice": false,
    "responder": "iris",
    "placeholder": "",
    "inputType": "hidden",
    "autoScrollNextQues": true
   },
   {
    "id": "faa3058d-c2b8-4ea6-93f2-f7ee5e411c17",
    "title": "While you wait, do check out your personalized results below:",
    "renderType": "string",
    "inputName": "auto",
    "type": "openEnded",
    "required": false,
    "options": [],
    "isMultipleChoice": false,
    "responder": "iris",
    "placeholder": "",
    "inputType": "hidden",
    "autoScrollNextQues": false,
    "isLastQuestion": true
   }
  ]
}